<?xml version="1.0" encoding="UTF-8"?>
<svg width="72px" height="52px" viewBox="0 0 72 52" version="1.1" xmlns="http://www.w3.org/2000/svg" xmlns:xlink="http://www.w3.org/1999/xlink">
    <!-- Generator: Sketch 48.1 (47250) - http://www.bohemiancoding.com/sketch -->
    <title>noun_1624726_cc</title>
    <desc>Created with Sketch.</desc>
    <defs></defs>
    <g id="Page-1" stroke="none" stroke-width="1" fill="none" fill-rule="evenodd">
        <g id="noun_1624726_cc" fill="#FFFFFF" fill-rule="nonzero">
            <g id="Group">
                <path d="M4,8 L68,8 C70.2,8 72,6.2 72,4 C72,1.8 70.2,0 68,0 L4,0 C1.8,0 0,1.8 0,4 C0,6.2 1.8,8 4,8 Z" id="Shape"></path>
                <path d="M4,52 L28,52 C30.2,52 32,50.2 32,48 C32,45.8 30.2,44 28,44 L4,44 C1.8,44 0,45.8 0,48 C0,50.2 1.8,52 4,52 Z" id="Shape"></path>
                <path d="M4,30 L48,30 C50.2,30 52,28.2 52,26 C52,23.8 50.2,22 48,22 L4,22 C1.8,22 0,23.8 0,26 C0,28.2 1.8,30 4,30 Z" id="Shape"></path>
            </g>
        </g>
    </g>
</svg>