<?xml version="1.0"?><svg width="744.09448819" height="1052.3622047" xmlns="http://www.w3.org/2000/svg" xmlns:xlink="http://www.w3.org/1999/xlink">
 <defs>
  <linearGradient id="linearGradient2778">
   <stop stop-color="#6afc6a" offset="0" id="stop2780"/>
   <stop stop-color="#4ee94e" id="stop2782" offset="0.812308"/>
   <stop stop-color="#9edc9e" offset="1" id="stop2784"/>
  </linearGradient>
  <linearGradient id="linearGradient2762">
   <stop stop-color="#38ff38" id="stop2764" offset="0"/>
   <stop stop-color="#12ff12" offset="0.747253" id="stop2770"/>
   <stop stop-color="#00c700" id="stop2766" offset="1"/>
  </linearGradient>
  <radialGradient gradientUnits="userSpaceOnUse" gradientTransform="matrix(1,0,0,0.743563,0,109.7745)" r="295.25532" fy="428.07648" fx="305.71429" cy="428.07648" cx="305.71429" id="radialGradient2768" xlink:href="#linearGradient2762"/>
  <radialGradient gradientUnits="userSpaceOnUse" gradientTransform="matrix(1,0,0,0.931326,-1.928058e-4,-24.36121)" r="280" fy="516.98254" fx="385.71875" cy="516.98254" cx="385.71875" id="radialGradient7680" xlink:href="#linearGradient2778"/>
 </defs>
 <metadata id="metadata7">image/svg+xml</metadata>
 <g>
  <title>Layer 1</title>
  <g display="inline" id="layer1">
   <path fill="url(#radialGradient2768)" stroke-width="13.205392" stroke-miterlimit="4" d="m665.71405,448.076538a279.999908,279.999939 0 1 1-559.999748,0a279.999908,279.999939 0 1 1559.999748,0z" id="path1874"/>
  </g>
  <g id="layer2">
   <path fill="url(#radialGradient7680)" stroke-width="7.653522" stroke-miterlimit="4" id="path2772" d="m385.71875,168.0625c-154.559937,0 -280,125.440033 -280,280c0,2.415009 0.032867,4.849579 0.09375,7.25c0.0242,0.954041 0.09127,1.89209 0.125,2.84375c0.003922,0.009033 -0.003929,0.022217 0,0.03125c17.366089,39.911713 136.074341,70.84375 279.78125,70.84375c147.377441,0 267.550537,-32.518433 279.90625,-73.90625c0.0578,-2.338715 0.09375,-4.709961 0.09375,-7.0625c0,-154.559967 -125.440063,-280.000015 -280,-280z"/>
  </g>
  <g id="layer3"/>
  <g id="layer4">
   <path fill="none" stroke="#0a0" stroke-width="28.654814" stroke-miterlimit="4" id="path7686" d="m661.71405,433.076538a279.999908,279.999939 0 1 1-559.999748,0a279.999908,279.999939 0 1 1559.999748,0z"/>
  </g>
 </g>
</svg>